{
  "accessors": [
    {
      "bufferView": 2,
      "componentType": 5126,
      "count": 878,
      "max": [
        1.2191510200500488,
        -1.700780987739563,
        8.2032852172851562
      ],
      "min": [
        -1.2194299697875977,
        -2.1131250858306885,
        7.8444662094116211
      ],
      "type": "VEC3"
    },
    {
      "bufferView": 2,
      "byteOffset": 10536,
      "componentType": 5126,
      "count": 878,
      "max": [
        0.99999552965164185,
        0.99835622310638428,
        0.9866105318069458
      ],
      "min": [
        -0.99999552965164185,
        -0.99835586547851562,
        -0.98660951852798462
      ],
      "type": "VEC3"
    },
    {
      "bufferView": 1,
      "componentType": 5126,
      "count": 878,
      "max": [
        0.78272902965545654,
        0.13973599672317505
      ],
      "min": [
        0.66912001371383667,
        0.026125999167561531
      ],
      "type": "VEC2"
    },
    {
      "bufferView": 0,
      "componentType": 5125,
      "count": 4560,
      "max": [
        877
      ],
      "min": [
        0
      ],
      "type": "SCALAR"
    },
    {
      "bufferView": 2,
      "byteOffset": 21072,
      "componentType": 5126,
      "count": 3861,
      "max": [
        3.1722910404205322,
        2.9980709552764893,
        9.1775379180908203
      ],
      "min": [
        -3.1571569442749023,
        -4.7035999298095703,
        3.19610595703125
      ],
      "type": "VEC3"
    },
    {
      "bufferView": 2,
      "byteOffset": 67404,
      "componentType": 5126,
      "count": 3861,
      "max": [
        0.99999988079071045,
        1,
        1
      ],
      "min": [
        -0.99999946355819702,
        -0.99987649917602539,
        -1
      ],
      "type": "VEC3"
    },
    {
      "bufferView": 1,
      "byteOffset": 7024,
      "componentType": 5126,
      "count": 3861,
      "max": [
        0.97426599264144897,
        0.46809199452400208
      ],
      "min": [
        0.086980998516082764,
        0.02951199933886528
      ],
      "type": "VEC2"
    },
    {
      "bufferView": 0,
      "byteOffset": 18240,
      "componentType": 5125,
      "count": 20880,
      "max": [
        3860
      ],
      "min": [
        0
      ],
      "type": "SCALAR"
    },
    {
      "bufferView": 2,
      "byteOffset": 113736,
      "componentType": 5126,
      "count": 8787,
      "max": [
        3.5667209625244141,
        1.8365939855575562,
        10.871832847595215
      ],
      "min": [
        -3.7725241184234619,
        -1.7293790578842163,
        8.1281061172485352
      ],
      "type": "VEC3"
    },
    {
      "bufferView": 2,
      "byteOffset": 219180,
      "componentType": 5126,
      "count": 8787,
      "max": [
        0.99987554550170898,
        0.99987423419952393,
        0.99987298250198364
      ],
      "min": [
        -0.99962335824966431,
        -0.99989861249923706,
        -0.99949389696121216
      ],
      "type": "VEC3"
    },
    {
      "bufferView": 1,
      "byteOffset": 37912,
      "componentType": 5126,
      "count": 8787,
      "max": [
        0.9804840087890625,
        0.98321002721786499
      ],
      "min": [
        0.026063000783324242,
        0.50187700986862183
      ],
      "type": "VEC2"
    },
    {
      "bufferView": 0,
      "byteOffset": 101760,
      "componentType": 5125,
      "count": 49584,
      "max": [
        8786
      ],
      "min": [
        0
      ],
      "type": "SCALAR"
    },
    {
      "bufferView": 2,
      "byteOffset": 324624,
      "componentType": 5126,
      "count": 1681,
      "max": [
        4.5935912132263184,
        4.6376028060913086,
        7.2594308853149414
      ],
      "min": [
        -4.7495980262756348,
        -4.8565230369567871,
        3.2899770736694336
      ],
      "type": "VEC3"
    },
    {
      "bufferView": 2,
      "byteOffset": 344796,
      "componentType": 5126,
      "count": 1681,
      "max": [
        1,
        1,
        0.99963152408599854
      ],
      "min": [
        -1,
        -0.99999988079071045,
        -0.99976450204849243
      ],
      "type": "VEC3"
    },
    {
      "bufferView": 1,
      "byteOffset": 108208,
      "componentType": 5126,
      "count": 1681,
      "max": [
        0.43767398595809937,
        0.64847898483276367
      ],
      "min": [
        0.093740999698638916,
        0.3045470118522644
      ],
      "type": "VEC2"
    },
    {
      "bufferView": 0,
      "byteOffset": 300096,
      "componentType": 5125,
      "count": 9600,
      "max": [
        1680
      ],
      "min": [
        0
      ],
      "type": "SCALAR"
    },
    {
      "bufferView": 2,
      "byteOffset": 364968,
      "componentType": 5126,
      "count": 1540,
      "max": [
        2.4251949787139893,
        -0.10644599795341492,
        9.5344114303588867
      ],
      "min": [
        -2.4251940250396729,
        -1.2617959976196289,
        8.3094415664672852
      ],
      "type": "VEC3"
    },
    {
      "bufferView": 2,
      "byteOffset": 383448,
      "componentType": 5126,
      "count": 1540,
      "max": [
        0.98793137073516846,
        0.99767911434173584,
        0.99791336059570312
      ],
      "min": [
        -0.98793274164199829,
        -0.99315989017486572,
        -0.99771475791931152
      ],
      "type": "VEC3"
    },
    {
      "bufferView": 1,
      "byteOffset": 121656,
      "componentType": 5126,
      "count": 1540,
      "max": [
        0.92574602365493774,
        0.68006801605224609
      ],
      "min": [
        0.73218697309494019,
        0.4865100085735321
      ],
      "type": "VEC2"
    },
    {
      "bufferView": 0,
      "byteOffset": 338496,
      "componentType": 5125,
      "count": 9216,
      "max": [
        1539
      ],
      "min": [
        0
      ],
      "type": "SCALAR"
    }
  ],
  "asset": {
    "extras": {
      "author": "JoseDR (https://sketchfab.com/JoseDR)",
      "license": "CC-BY-4.0 (http://creativecommons.org/licenses/by/4.0/)",
      "source": "https://sketchfab.com/3d-models/wind-elemental-pixie-aer-the-battle-cats-fe20fec768cb4695a0d042d6e76ecbbd",
      "title": "Wind Elemental Pixie, Aer (The Battle Cats)"
    },
    "generator": "Sketchfab-8.87.0",
    "version": "2.0"
  },
  "bufferViews": [
    {
      "buffer": 0,
      "byteLength": 375360,
      "byteOffset": 0,
      "name": "floatBufferViews",
      "target": 34963
    },
    {
      "buffer": 0,
      "byteLength": 133976,
      "byteOffset": 375360,
      "byteStride": 8,
      "name": "floatBufferViews",
      "target": 34962
    },
    {
      "buffer": 0,
      "byteLength": 401928,
      "byteOffset": 509336,
      "byteStride": 12,
      "name": "floatBufferViews",
      "target": 34962
    }
  ],
  "buffers": [
    {
      "byteLength": 911264,
      "uri": "scene.bin"
    }
  ],
  "images": [
    {
      "uri": "textures/blinn1SG_baseColor.jpeg"
    },
    {
      "uri": "textures/lambert2SG_baseColor.jpeg"
    },
    {
      "uri": "textures/lambert3SG_baseColor.jpeg"
    },
    {
      "uri": "textures/lambert4SG_baseColor.jpeg"
    }
  ],
  "materials": [
    {
      "doubleSided": true,
      "emissiveFactor": [
        0,
        0,
        0
      ],
      "name": "blinn1SG",
      "pbrMetallicRoughness": {
        "baseColorFactor": [
          1,
          1,
          1,
          1
        ],
        "baseColorTexture": {
          "index": 0,
          "texCoord": 0
        },
        "metallicFactor": 0.092709493244066632,
        "roughnessFactor": 0.46422717904687427
      }
    },
    {
      "doubleSided": true,
      "emissiveFactor": [
        0,
        0,
        0
      ],
      "name": "lambert2SG",
      "pbrMetallicRoughness": {
        "baseColorFactor": [
          1,
          1,
          1,
          1
        ],
        "baseColorTexture": {
          "index": 1,
          "texCoord": 0
        },
        "metallicFactor": 0,
        "roughnessFactor": 0.46900985376408943
      }
    },
    {
      "doubleSided": true,
      "emissiveFactor": [
        0,
        0,
        0
      ],
      "name": "lambert3SG",
      "pbrMetallicRoughness": {
        "baseColorFactor": [
          1,
          1,
          1,
          1
        ],
        "baseColorTexture": {
          "index": 2,
          "texCoord": 0
        },
        "metallicFactor": 0,
        "roughnessFactor": 0.71914032649592197
      }
    },
    {
      "doubleSided": true,
      "emissiveFactor": [
        0,
        0,
        0
      ],
      "name": "lambert4SG",
      "pbrMetallicRoughness": {
        "baseColorFactor": [
          1,
          1,
          1,
          1
        ],
        "baseColorTexture": {
          "index": 3,
          "texCoord": 0
        },
        "metallicFactor": 0.12912565716535915,
        "roughnessFactor": 1
      }
    }
  ],
  "meshes": [
    {
      "primitives": [
        {
          "attributes": {
            "NORMAL": 1,
            "POSITION": 0,
            "TEXCOORD_0": 2
          },
          "indices": 3,
          "material": 0,
          "mode": 4
        }
      ]
    },
    {
      "primitives": [
        {
          "attributes": {
            "NORMAL": 5,
            "POSITION": 4,
            "TEXCOORD_0": 6
          },
          "indices": 7,
          "material": 1,
          "mode": 4
        }
      ]
    },
    {
      "primitives": [
        {
          "attributes": {
            "NORMAL": 9,
            "POSITION": 8,
            "TEXCOORD_0": 10
          },
          "indices": 11,
          "material": 2,
          "mode": 4
        }
      ]
    },
    {
      "primitives": [
        {
          "attributes": {
            "NORMAL": 13,
            "POSITION": 12,
            "TEXCOORD_0": 14
          },
          "indices": 15,
          "material": 2,
          "mode": 4
        }
      ]
    },
    {
      "primitives": [
        {
          "attributes": {
            "NORMAL": 17,
            "POSITION": 16,
            "TEXCOORD_0": 18
          },
          "indices": 19,
          "material": 3,
          "mode": 4
        }
      ]
    }
  ],
  "nodes": [
    {
      "children": [
        1
      ],
      "name": "RootNode (gltf orientation matrix)",
      "rotation": [
        -0.70710678118654746,
        -0,
        -0,
        0.70710678118654757
      ]
    },
    {
      "children": [
        2
      ],
      "name": "RootNode (model correction matrix)"
    },
    {
      "children": [
        3,
        4,
        5,
        6,
        7
      ],
      "name": "Aer.obj.cleaner.materialmerger.gles"
    },
    {
      "mesh": 0,
      "name": ""
    },
    {
      "mesh": 1,
      "name": ""
    },
    {
      "mesh": 2,
      "name": ""
    },
    {
      "mesh": 3,
      "name": ""
    },
    {
      "mesh": 4,
      "name": ""
    }
  ],
  "samplers": [
    {
      "magFilter": 9729,
      "minFilter": 9987,
      "wrapS": 10497,
      "wrapT": 10497
    }
  ],
  "scene": 0,
  "scenes": [
    {
      "name": "OSG_Scene",
      "nodes": [
        0
      ]
    }
  ],
  "textures": [
    {
      "sampler": 0,
      "source": 0
    },
    {
      "sampler": 0,
      "source": 1
    },
    {
      "sampler": 0,
      "source": 2
    },
    {
      "sampler": 0,
      "source": 3
    }
  ]
}

